{
	"test": {
		"PORT": 3000,
		"MONGODB_URI": "mongodb://localhost:27017/FlamesBlogTest",
		"JWT_SECRET": "aksudh27ydhu1y2ed1263fbu12"
	},
	"development": {
		"PORT": 3000,
		"MONGODB_URI": "mongodb://localhost:27017/FlamesBlog",
		"JWT_SECRET": "kjahsdy1t23buydasdu2das"
	}
}
